module gold-gym-be

go 1.17

require (
	github.com/afex/hystrix-go v0.0.0-20180502004556-fa1af6a1f4f5
	github.com/alecthomas/template v0.0.0-20190718012654-fb15b899a751
	github.com/dgrijalva/jwt-go v3.2.0+incompatible
	github.com/go-sql-driver/mysql v1.6.0
	github.com/google/go-querystring v1.1.0
	github.com/gorilla/mux v1.8.0
	github.com/jmoiron/sqlx v1.3.5
	github.com/leekchan/accounting v1.0.0
	github.com/minus5/gofreetds v0.0.0-20200826115934-6705a38c49ca
	github.com/opentracing/opentracing-go v1.2.0
	github.com/pkg/errors v0.9.1
	github.com/rs/cors v1.8.2
	github.com/rs/xid v1.4.0
	github.com/shopspring/decimal v1.3.1
	github.com/stretchr/testify v1.8.4
	github.com/swaggo/http-swagger v1.2.8
	github.com/swaggo/swag v1.8.2
	github.com/uber/jaeger-client-go v2.30.0+incompatible
	go.uber.org/zap v1.21.0
	gopkg.in/guregu/null.v3 v3.5.0
	gopkg.in/yaml.v2 v2.4.0
)

require (
	github.com/KyleBanks/depth v1.2.1 // indirect
	github.com/cockroachdb/apd v1.1.0 // indirect
	github.com/davecgh/go-spew v1.1.1 // indirect
	github.com/fsnotify/fsnotify v1.6.0 // indirect
	github.com/go-openapi/jsonpointer v0.19.5 // indirect
	github.com/go-openapi/jsonreference v0.20.0 // indirect
	github.com/go-openapi/spec v0.20.5 // indirect
	github.com/go-openapi/swag v0.19.15 // indirect
	github.com/golang/groupcache v0.0.0-20210331224755-41bb18bfe9da // indirect
	github.com/hashicorp/hcl v1.0.0 // indirect
	github.com/josharian/intern v1.0.0 // indirect
	github.com/magiconair/properties v1.8.7 // indirect
	github.com/mailru/easyjson v0.7.6 // indirect
	github.com/mitchellh/mapstructure v1.5.0 // indirect
	github.com/pelletier/go-toml/v2 v2.0.6 // indirect
	github.com/pmezard/go-difflib v1.0.0 // indirect
	github.com/spf13/afero v1.9.3 // indirect
	github.com/spf13/cast v1.5.0 // indirect
	github.com/spf13/jwalterweatherman v1.1.0 // indirect
	github.com/spf13/pflag v1.0.5 // indirect
	github.com/subosito/gotenv v1.4.2 // indirect
	github.com/swaggo/files v0.0.0-20210815190702-a29dd2bc99b2 // indirect
	go.opentelemetry.io/otel v1.22.0 // indirect
	go.uber.org/atomic v1.9.0 // indirect
	go.uber.org/multierr v1.8.0 // indirect
	golang.org/x/crypto v0.0.0-20220525230936-793ad666bf5e // indirect
	golang.org/x/net v0.4.0 // indirect
	golang.org/x/sys v0.3.0 // indirect
	golang.org/x/text v0.5.0 // indirect
	golang.org/x/tools v0.1.12 // indirect
	gopkg.in/alexcesaro/quotedprintable.v3 v3.0.0-20150716171945-2caba252f4dc // indirect
	gopkg.in/gomail.v2 v2.0.0-20160411212932-81ebce5c23df // indirect
	gopkg.in/ini.v1 v1.67.0 // indirect
	gopkg.in/yaml.v3 v3.0.1 // indirect
)

require (
	github.com/HdrHistogram/hdrhistogram-go v1.1.2 // indirect
	github.com/jung-kurt/gofpdf v1.16.2
	github.com/raja/argon2pw v1.0.1
	github.com/smartystreets/goconvey v1.7.2 // indirect
	github.com/spf13/viper v1.15.0
	github.com/uber/jaeger-lib v2.4.1+incompatible // indirect
	go.opencensus.io v0.24.0
	go.opentelemetry.io/otel/trace v1.22.0
)
